{
    "name": "magento/project-community-edition",
    "description": "eCommerce Platform for Growth (Community Edition)",
    "type": "project",
    "license": [
        "OSL-3.0",
        "AFL-3.0"
    ],
    "config": {
        "preferred-install": "dist",
        "sort-packages": true
    },
    "require": {
<<<<<<< HEAD
        "magento/product-community-edition": "2.4.0",
=======
        "magento/product-community-edition": "2.4.2",
        "mageplaza/module-core": "^1.4",
>>>>>>> b84b3f6b9d574da80cdd2b23f070478a9096a743
        "weprovide/magento2-module-dompdf": "^1.2"
    },
    "require-dev": {
        "allure-framework/allure-phpunit": "~1.2.0",
        "dealerdirect/phpcodesniffer-composer-installer": "^0.5.0",
        "friendsofphp/php-cs-fixer": "~2.14.0",
        "lusitanian/oauth": "~0.8.10",
        "magento/magento-coding-standard": "~3.0.0",
        "magento/magento2-functional-testing-framework": "~2.4.3",
        "pdepend/pdepend": "2.5.2",
        "phpcompatibility/php-compatibility": "^9.3",
        "phpmd/phpmd": "@stable",
        "phpstan/phpstan": "^0.12.2",
        "phpunit/phpunit": "~6.5.0",
        "sebastian/phpcpd": "~3.0.0",
        "squizlabs/php_codesniffer": "3.4.0"
    },
    "conflict": {
        "gene/bluefoot": "*"
    },
    "autoload": {
        "psr-4": {
            "Magento\\Framework\\": "lib/internal/Magento/Framework/",
            "Magento\\Setup\\": "setup/src/Magento/Setup/",
            "Magento\\": "app/code/Magento/",
            "Zend\\Mvc\\Controller\\": "setup/src/Zend/Mvc/Controller/"
        },
        "psr-0": {
            "": [
                "app/code/",
                "generated/code/"
            ]
        },
        "files": [
            "app/etc/NonComposerComponentRegistration.php"
        ],
        "exclude-from-classmap": [
            "**/dev/**",
            "**/update/**",
            "**/Test/**"
        ]
    },
    "autoload-dev": {
        "psr-4": {
            "Magento\\Sniffs\\": "dev/tests/static/framework/Magento/Sniffs/",
            "Magento\\Tools\\": "dev/tools/Magento/Tools/",
            "Magento\\Tools\\Sanity\\": "dev/build/publication/sanity/Magento/Tools/Sanity/",
            "Magento\\TestFramework\\Inspection\\": "dev/tests/static/framework/Magento/TestFramework/Inspection/",
            "Magento\\TestFramework\\Utility\\": "dev/tests/static/framework/Magento/TestFramework/Utility/",
            "Magento\\PhpStan\\": "dev/tests/static/framework/Magento/PhpStan/"
        }
    },
    "version": "2.3.6",
    "minimum-stability": "stable",
    "repositories": [
        {
            "type": "composer",
            "url": "https://repo.magento.com/"
        }
    ],
    "extra": {
        "magento-force": "override"
    }
}
